hw5
…
4.

liqSales %>%
  filter(Year == 2019) %>%
  group_by(Date) %>%
  summarize(Count = n(), Volume = sum(`Volume Sold (Liters)`), Cost =
            sum(`Sale (Dollars)`))

## # A tibble: 157 x 4
##    Date       Count Volume    Cost
##    <date>     <int>  <dbl>   <dbl>
##  1 2019-01-03   957  6816. 112009.
##  2 2019-01-04   143  1256.  16766.
##  3 2019-01-09   944  6732.  99703.
##  4 2019-01-10     2   135    1457.
##  5 2019-01-11   177  1205.  16481.
##  6 2019-01-16   912  8227. 118597.
##  7 2019-01-18    62   232.   4483.
##  8 2019-01-24  1221  9239. 139658.
##  9 2019-01-25   253  2329.  31893.
## 10 2019-01-30  1082  8752. 127225.
## # ... with 147 more rows
…
